id;document_number;email;name;phone_number
1;11223344;juan@gmail.com;Juan Armando Casas;3116384521
2;22334455;maria@gmail.com;Maria Antonieta Benavidez;3158896323
3;11226699;jaime@gmail.com;Jaime Armando Casas;3135875142
4;55441133;maira@gmail.com;Maira Andrea Moreno;3135875143
5;66554421;sandrom@gmail.com;Sandron Carlos Jaramillo;3135875144
6;11226702;Carlos4@gmail.com;Carlos4;3135875145
7;11226703;Carlos5@gmail.com;Carlos5;3135875146
8;11226704;Carlos6@gmail.com;Carlos6;3135875147
9;11226705;Carlos7@gmail.com;Carlos7;3135875148
10;11226706;Carlos8@gmail.com;Carlos8;3135875149
11;11226707;Carlos9@gmail.com;Carlos9;3135875150
12;11226708;Carlos10@gmail.com;Carlos10;3135875151
13;11226709;Carlos11@gmail.com;Carlos11;3135875152
14;11226710;Carlos12@gmail.com;Carlos12;3135875153
15;11226711;Carlos13@gmail.com;Carlos13;3135875154
16;11226712;Carlos14@gmail.com;Carlos14;3135875155
17;11226713;Carlos15@gmail.com;Carlos15;3135875156
18;11226714;Carlos16@gmail.com;Carlos16;3135875157
19;11226715;Carlos17@gmail.com;Carlos17;3135875158
20;11226716;Carlos18@gmail.com;Carlos18;3135875159
21;11226717;Carlos19@gmail.com;Carlos19;3135875160
22;11226718;Carlos20@gmail.com;Carlos20;3135875161
23;11226719;Carlos21@gmail.com;Carlos21;3135875162
24;11226720;Carlos22@gmail.com;Carlos22;3135875163
25;11226721;Carlos23@gmail.com;Carlos23;3135875164
26;11226722;Carlos24@gmail.com;Carlos24;3135875165
27;11226723;Carlos25@gmail.com;Carlos25;3135875166
28;11226724;Carlos26@gmail.com;Carlos26;3135875167
29;11226725;Carlos27@gmail.com;Carlos27;3135875168
30;11226726;Carlos28@gmail.com;Carlos28;3135875169
31;11226727;Carlos29@gmail.com;Carlos29;3135875170
32;11226728;Carlos30@gmail.com;Carlos30;3135875171
33;11226729;Carlos31@gmail.com;Carlos31;3135875172
34;11226730;Carlos32@gmail.com;Carlos32;3135875173
35;11226731;Carlos33@gmail.com;Carlos33;3135875174
36;11226732;Carlos34@gmail.com;Carlos34;3135875175
37;11226733;Carlos35@gmail.com;Carlos35;3135875176
38;11226734;Carlos36@gmail.com;Carlos36;3135875177
39;11226735;Carlos37@gmail.com;Carlos37;3135875178
40;11226736;Carlos38@gmail.com;Carlos38;3135875179
41;11226737;Carlos39@gmail.com;Carlos39;3135875180
42;11226738;Carlos40@gmail.com;Carlos40;3135875181
43;11226739;Carlos41@gmail.com;Carlos41;3135875182
44;11226740;Carlos42@gmail.com;Carlos42;3135875183
